<svg version="1.1" id="Layer_1" xmlns="http://www.w3.org/2000/svg" x="0px" y="0px"
     viewBox="0 0 80.5 80.5" style="enable-background:new 0 0 80.5 80.5;" xml:space="preserve">
<style type="text/css">
	.st0{fill:none;stroke:#dcaa3b;stroke-miterlimit:10;}
</style>
<g>
	<circle class="st0" cx="40.2" cy="40.2" r="39.7"/>
	<polygon class="st0" points="61.7,39.9 29.1,58.7 29.1,21.1 	"/>
</g>
</svg>
