{
  "sections": {
    "16392972442558c72a": {
      "type": "featured-collections",
      "disabled": true,
      "blocks": {
        "16392972441a5a2b43-0": {
          "type": "collection",
          "settings": {
            "collection": "",
            "title": "",
            "grid_items_count": 8,
            "button_text": "View all products"
          }
        },
        "58841076-216a-4577-9130-b49f3fabea5e": {
          "type": "collection",
          "settings": {
            "collection": "",
            "title": "",
            "grid_items_count": 8,
            "button_text": "View all products"
          }
        }
      },
      "block_order": [
        "16392972441a5a2b43-0",
        "58841076-216a-4577-9130-b49f3fabea5e"
      ],
      "settings": {
        "title": "Featured collection",
        "layout_mode": "grid",
        "show_product_info": true,
        "show_vendor": false,
        "show_color_swatch": false,
        "grid_mobile_items_per_row": "2",
        "grid_desktop_items_per_row": 4
      }
    },
    "main": {
      "type": "main-page",
      "settings": {
        "show_large": false
      }
    },
    "16392982389a4c8b39": {
      "type": "image-with-text-block",
      "settings": {
        "image": "shopify:\/\/shop_images\/Chocolate_sea_salt_caramel.jpg",
        "background": "#ffffff",
        "text_color": "#ffffff",
        "block_size": "large",
        "title": "KYC",
        "content": "<p>Information about nutritional panels of KYC giftset 2023<\/p>",
        "button_label": "More Info",
        "button_link": "shopify:\/\/pages\/nutritionalpanels-kycgiftset2023",
        "show_parallax": false
      }
    },
    "6912e92c-472a-4a25-80ac-79bf2e41378f": {
      "type": "slideshow_orig",
      "blocks": {
        "template--15251703201979__6912e92c-472a-4a25-80ac-79bf2e41378f-1683060111998f5adf-1": {
          "type": "image",
          "disabled": true,
          "settings": {
            "apply_overlay": true,
            "content_position": "bottomLeft",
            "subheading": "Slide title",
            "title": "Tell your story",
            "button_1_text": "",
            "button_1_link": "",
            "button_2_text": "",
            "button_2_link": ""
          }
        }
      },
      "block_order": [
        "template--15251703201979__6912e92c-472a-4a25-80ac-79bf2e41378f-1683060111998f5adf-1"
      ],
      "settings": {
        "show_fullscreen": false,
        "show_arrow": false,
        "autoplay": true,
        "cycle_speed": 5,
        "text_color": "#ffffff",
        "button_color": "#363636",
        "button_background": "#ffffff"
      }
    }
  },
  "order": [
    "16392972442558c72a",
    "main",
    "16392982389a4c8b39",
    "6912e92c-472a-4a25-80ac-79bf2e41378f"
  ]
}